{
  "formatVersion": 1,
  "database": {
    "version": 1,
    "identityHash": "193ca61442e70d488efe74511f69d9c0",
    "entities": [
      {
        "tableName": "login_session",
        "createSql": "CREATE TABLE IF NOT EXISTS `${TABLE_NAME}` (`sessionId` INTEGER NOT NULL, PRIMARY KEY(`sessionId`))",
        "fields": [
          {
            "fieldPath": "sessionId",
            "columnName": "sessionId",
            "affinity": "INTEGER",
            "notNull": true
          }
        ],
        "primaryKey": {
          "columnNames": [
            "sessionId"
          ],
          "autoGenerate": false
        },
        "indices": [],
        "foreignKeys": []
      }
    ],
    "setupQueries": [
      "CREATE TABLE IF NOT EXISTS room_master_table (id INTEGER PRIMARY KEY,identity_hash TEXT)",
      "INSERT OR REPLACE INTO room_master_table (id,identity_hash) VALUES(42, \"193ca61442e70d488efe74511f69d9c0\")"
    ]
  }
}